\relax 
\@writefile{toc}{\contentsline {chapter}{\numberline {1}Introduction}{1}}
\@writefile{lof}{\addvspace {10\p@ }}
\@writefile{lot}{\addvspace {10\p@ }}
\@writefile{toc}{\contentsline {section}{\numberline {1.1}The Project}{1}}
\@writefile{toc}{\contentsline {section}{\numberline {1.2}Objectives}{1}}
\@writefile{toc}{\contentsline {section}{\numberline {1.3}Structure}{2}}
\@writefile{toc}{\contentsline {chapter}{\numberline {2}Background}{3}}
\@writefile{lof}{\addvspace {10\p@ }}
\@writefile{lot}{\addvspace {10\p@ }}
\@writefile{toc}{\contentsline {section}{\numberline {2.1}Mobile Application (Apps)}{3}}
\@writefile{lof}{\contentsline {figure}{\numberline {2.1}{\ignorespaces Graph to show the market share of each major company}}{3}}
\newlabel{g1}{{2.1}{3}}
\@writefile{lof}{\contentsline {figure}{\numberline {2.2}{\ignorespaces An Example of a route card}}{4}}
\newlabel{g2}{{2.2}{4}}
\@writefile{toc}{\contentsline {section}{\numberline {2.2}Route Card}{4}}
\citation{jquery}
\@writefile{toc}{\contentsline {section}{\numberline {2.3}Grid Reference Systems}{5}}
\@writefile{toc}{\contentsline {section}{\numberline {2.4}Web Technologies}{5}}
\@writefile{toc}{\contentsline {subsection}{\numberline {2.4.1}HTML5 \& CSS}{5}}
\@writefile{toc}{\contentsline {subsection}{\numberline {2.4.2}JavaScript \& jQuery}{6}}
\@writefile{toc}{\contentsline {subsection}{\numberline {2.4.3}PHP}{6}}
\@writefile{toc}{\contentsline {section}{\numberline {2.5}Programming Languages}{6}}
\citation{JSON}
\@writefile{toc}{\contentsline {section}{\numberline {2.6}Data-Interchange Formats}{7}}
\@writefile{toc}{\contentsline {subsection}{\numberline {2.6.1}XML}{7}}
\@writefile{toc}{\contentsline {subsection}{\numberline {2.6.2}JSON}{7}}
\@writefile{toc}{\contentsline {section}{\numberline {2.7}Web Service API's}{7}}
\@writefile{toc}{\contentsline {subsection}{\numberline {2.7.1}Groovy \& Grails}{7}}
\citation{dropwizard}
\citation{jenkins}
\citation{redmine}
\@writefile{toc}{\contentsline {subsection}{\numberline {2.7.2}Dropwizard}{8}}
\@writefile{toc}{\contentsline {section}{\numberline {2.8}Build Tools}{8}}
\@writefile{toc}{\contentsline {subsection}{\numberline {2.8.1}Jenkins}{8}}
\citation{git}
\citation{Phonegap}
\@writefile{toc}{\contentsline {subsection}{\numberline {2.8.2}Redmine}{9}}
\@writefile{toc}{\contentsline {subsection}{\numberline {2.8.3}GIT}{9}}
\@writefile{toc}{\contentsline {subsection}{\numberline {2.8.4}Phonegap}{9}}
\@writefile{toc}{\contentsline {section}{\numberline {2.9}Related Work}{10}}
\@writefile{toc}{\contentsline {subsection}{\numberline {2.9.1}Enjoy Snowdonia App}{10}}
\@writefile{toc}{\contentsline {chapter}{\numberline {3}Design}{11}}
\@writefile{lof}{\addvspace {10\p@ }}
\@writefile{lot}{\addvspace {10\p@ }}
\@writefile{toc}{\contentsline {section}{\numberline {3.1}Methodology}{11}}
\@writefile{toc}{\contentsline {subsection}{\numberline {3.1.1}Tool Selection Process}{11}}
\@writefile{toc}{\contentsline {subsection}{\numberline {3.1.2}Main App Language}{11}}
\citation{MVC}
\@writefile{lof}{\contentsline {figure}{\numberline {3.1}{\ignorespaces Illustration of Model-View-Controller (MVC)}}{12}}
\newlabel{g3}{{3.1}{12}}
\@writefile{toc}{\contentsline {subsubsection}{MVC Design}{12}}
\@writefile{toc}{\contentsline {paragraph}{}{12}}
\@writefile{toc}{\contentsline {paragraph}{}{12}}
\citation{angularlib}
\@writefile{toc}{\contentsline {paragraph}{}{13}}
\@writefile{toc}{\contentsline {paragraph}{}{13}}
\@writefile{toc}{\contentsline {subsubsection}{Native Theme}{13}}
\@writefile{lof}{\contentsline {figure}{\numberline {3.2}{\ignorespaces Illustration showing how jQT traverses divs.}}{14}}
\newlabel{g4}{{3.2}{14}}
\@writefile{toc}{\contentsline {paragraph}{}{14}}
\@writefile{toc}{\contentsline {subsubsection}{Mapping API}{14}}
\@writefile{toc}{\contentsline {subsection}{\numberline {3.1.3}Data-Interchange Format}{15}}
\@writefile{toc}{\contentsline {subsection}{\numberline {3.1.4}Backend Language}{16}}
\@writefile{toc}{\contentsline {paragraph}{}{16}}
\@writefile{toc}{\contentsline {section}{\numberline {3.2}Application Design}{16}}
\@writefile{toc}{\contentsline {subsubsection}{End to End Process design}{16}}
\@writefile{toc}{\contentsline {section}{\numberline {3.3}Backend Service Design }{16}}
\@writefile{toc}{\contentsline {chapter}{\numberline {4}Implementation}{18}}
\@writefile{lof}{\addvspace {10\p@ }}
\@writefile{lot}{\addvspace {10\p@ }}
\@writefile{toc}{\contentsline {section}{\numberline {4.1}Mobile Application Development}{18}}
\@writefile{toc}{\contentsline {subsection}{\numberline {4.1.1}Core Application Development}{18}}
\@writefile{lof}{\contentsline {figure}{\numberline {4.1}{\ignorespaces Screenshot of Hillsafe with debugger.}}{19}}
\newlabel{g9}{{4.1}{19}}
\@writefile{lof}{\contentsline {figure}{\numberline {4.2}{\ignorespaces Screenshot of Git commits of whole project including branching to android.}}{20}}
\newlabel{g10}{{4.2}{20}}
\@writefile{lof}{\contentsline {figure}{\numberline {4.3}{\ignorespaces Image of OSGrid Sheet boundaries.}}{21}}
\newlabel{g5}{{4.3}{21}}
\@writefile{toc}{\contentsline {subsection}{\numberline {4.1.2}Problems}{21}}
\@writefile{toc}{\contentsline {subsubsection}{Latitude \& Longitude error}{21}}
\newlabel{t1}{{4.1.2}{22}}
\@writefile{lot}{\contentsline {table}{\numberline {4.1}{\ignorespaces Table of results after investigation of Error Rates}}{22}}
\citation{coord}
\@writefile{toc}{\contentsline {paragraph}{}{23}}
\@writefile{toc}{\contentsline {paragraph}{}{23}}
\@writefile{toc}{\contentsline {paragraph}{}{23}}
\@writefile{toc}{\contentsline {subsubsection}{digest Loop Error}{24}}
\@writefile{toc}{\contentsline {paragraph}{}{24}}
\@writefile{toc}{\contentsline {subsubsection}{Cross Origin Resource Sharing (CORS)}{25}}
\@writefile{toc}{\contentsline {subsection}{\numberline {4.1.3}Specialised Version Development}{25}}
\@writefile{toc}{\contentsline {paragraph}{}{25}}
\@writefile{lof}{\contentsline {figure}{\numberline {4.4}{\ignorespaces Illustration of git branching}}{26}}
\newlabel{g6}{{4.4}{26}}
\@writefile{toc}{\contentsline {section}{\numberline {4.2}Backend Service Development}{26}}
\@writefile{toc}{\contentsline {paragraph}{}{27}}
\citation{jasmine}
\@writefile{toc}{\contentsline {chapter}{\numberline {5}Testing}{28}}
\@writefile{lof}{\addvspace {10\p@ }}
\@writefile{lot}{\addvspace {10\p@ }}
\@writefile{toc}{\contentsline {section}{\numberline {5.1}Continuous Testing}{28}}
\@writefile{toc}{\contentsline {paragraph}{}{28}}
\@writefile{toc}{\contentsline {chapter}{\numberline {6}Evaluation}{30}}
\@writefile{lof}{\addvspace {10\p@ }}
\@writefile{lot}{\addvspace {10\p@ }}
\@writefile{toc}{\contentsline {section}{\numberline {6.1}User Feedback Questionnaire}{30}}
\@writefile{lof}{\contentsline {figure}{\numberline {6.1}{\ignorespaces Results of Questionaire}}{31}}
\newlabel{g13}{{6.1}{31}}
\@writefile{toc}{\contentsline {section}{\numberline {6.2}Improving App Speed}{31}}
\@writefile{toc}{\contentsline {section}{\numberline {6.3}Error Reporting}{31}}
\citation{DPA}
\@writefile{toc}{\contentsline {section}{\numberline {6.4}Backend Implementation Evaluation}{32}}
\@writefile{toc}{\contentsline {section}{\numberline {6.5}Social, legal and Ethical Issues}{32}}
\@writefile{toc}{\contentsline {paragraph}{}{32}}
\@writefile{toc}{\contentsline {section}{\numberline {6.6}Known Issues}{33}}
\bibdata{bib}
\@writefile{toc}{\contentsline {chapter}{\numberline {7}Conclusion}{34}}
\@writefile{lof}{\addvspace {10\p@ }}
\@writefile{lot}{\addvspace {10\p@ }}
\@writefile{toc}{\contentsline {section}{\numberline {7.1}Future Work}{34}}
\@writefile{toc}{\contentsline {section}{\numberline {7.2}Overall Review of Application}{34}}
\bibcite{pdfbox}{1}
\bibcite{angular}{2}
\bibcite{JSON}{3}
\bibcite{routecard}{4}
\bibcite{Phonegap}{5}
\bibcite{angularlib}{6}
\bibcite{DPA}{7}
\bibcite{git}{8}
\bibcite{jenkins}{9}
\bibcite{jasmine}{10}
\bibcite{redmine}{11}
\bibcite{jquery}{12}
\bibcite{oo-js}{13}
\bibcite{js}{14}
\bibcite{coord}{15}
\bibcite{dropwizard}{16}
\bibcite{MVC}{17}
\bibstyle{plain}
\citation{*}
\@writefile{toc}{\contentsline {chapter}{Bibliography}{36}}
\@writefile{toc}{\contentsline {chapter}{\numberline {8}Appendix}{37}}
\@writefile{lof}{\addvspace {10\p@ }}
\@writefile{lot}{\addvspace {10\p@ }}
\@writefile{lof}{\contentsline {figure}{\numberline {8.1}{\ignorespaces Mockup of Hillsafe end to end.}}{38}}
\newlabel{A}{{8.1}{38}}
\@writefile{lof}{\contentsline {figure}{\numberline {8.2}{\ignorespaces Flowchart of backend process.}}{39}}
\newlabel{B}{{8.2}{39}}
\@writefile{toc}{\contentsline {section}{\numberline {8.1}OS Detection Code}{40}}
\newlabel{sec:OS detection code}{{8.1}{40}}
\@writefile{lof}{\contentsline {figure}{\numberline {8.3}{\ignorespaces Questionnaire.}}{42}}
\newlabel{C}{{8.3}{42}}
\@writefile{toc}{\contentsline {section}{\numberline {8.2}jQT Bootstrap Code}{43}}
\newlabel{sec:jQT Bootstrap}{{8.2}{43}}
\@writefile{toc}{\contentsline {section}{\numberline {8.3}Controllers.js}{46}}
\newlabel{sec:controllers.js}{{8.3}{46}}
\@writefile{toc}{\contentsline {section}{\numberline {8.4}Services.js}{50}}
\newlabel{sec:services.js}{{8.4}{50}}
\@writefile{toc}{\contentsline {section}{\numberline {8.5}\_952HillsafeApp.js}{59}}
\newlabel{sec:HillsafeApp}{{8.5}{59}}
\@writefile{toc}{\contentsline {section}{\numberline {8.6}Index.html}{64}}
\newlabel{sec:index.html}{{8.6}{64}}
\@writefile{toc}{\contentsline {section}{\numberline {8.7}Route Card Class}{76}}
\newlabel{sec:route card class}{{8.7}{76}}
