\addvspace {10\p@ }
\addvspace {10\p@ }
\contentsline {figure}{\numberline {2.1}{\ignorespaces Graph to show the market share of each major company}}{3}
\contentsline {figure}{\numberline {2.2}{\ignorespaces An Example of a route card}}{4}
\addvspace {10\p@ }
\contentsline {figure}{\numberline {3.1}{\ignorespaces Illustration of Model-View-Controller (MVC)}}{12}
\contentsline {figure}{\numberline {3.2}{\ignorespaces Illustration showing how jQT traverses divs.}}{14}
\addvspace {10\p@ }
\contentsline {figure}{\numberline {4.1}{\ignorespaces Screenshot of Hillsafe with debugger.}}{19}
\contentsline {figure}{\numberline {4.2}{\ignorespaces Screenshot of Git commits of whole project including branching to android.}}{20}
\contentsline {figure}{\numberline {4.3}{\ignorespaces Image of OSGrid Sheet boundaries.}}{21}
\contentsline {figure}{\numberline {4.4}{\ignorespaces Illustration of git branching}}{26}
\addvspace {10\p@ }
\addvspace {10\p@ }
\contentsline {figure}{\numberline {6.1}{\ignorespaces Results of Questionaire}}{31}
\addvspace {10\p@ }
\addvspace {10\p@ }
\contentsline {figure}{\numberline {8.1}{\ignorespaces Mockup of Hillsafe end to end.}}{38}
\contentsline {figure}{\numberline {8.2}{\ignorespaces Flowchart of backend process.}}{39}
\contentsline {figure}{\numberline {8.3}{\ignorespaces Questionnaire.}}{42}
