This is BibTeX, Version 0.99d (TeX Live 2012)
Capacity: max_strings=35307, hash_size=35307, hash_prime=30011
The top-level auxiliary file: dissert.aux
The style file: plain.bst
Database file #1: bib.bib
Warning--entry type for "MVC" isn't style-file defined
--line 2 of file bib.bib
Warning--entry type for "coord" isn't style-file defined
--line 7 of file bib.bib
Warning--entry type for "DPA" isn't style-file defined
--line 18 of file bib.bib
Warning--entry type for "jasmine" isn't style-file defined
--line 30 of file bib.bib
Warning--empty publisher in routecard
Warning--empty publisher in oo-js
You've used 6 entries,
            2118 wiz_defined-function locations,
            524 strings with 4468 characters,
and the built_in function-call counts, 1276 in all, are:
= -- 113
> -- 42
< -- 0
+ -- 18
- -- 12
* -- 47
:= -- 220
add.period$ -- 18
call.type$ -- 6
change.case$ -- 22
chr.to.int$ -- 0
cite$ -- 8
duplicate$ -- 52
empty$ -- 133
format.name$ -- 12
if$ -- 272
int.to.chr$ -- 0
int.to.str$ -- 6
missing$ -- 4
newline$ -- 33
num.names$ -- 12
pop$ -- 50
preamble$ -- 1
purify$ -- 18
quote$ -- 0
skip$ -- 43
stack$ -- 0
substring$ -- 30
swap$ -- 6
text.length$ -- 0
text.prefix$ -- 0
top$ -- 0
type$ -- 20
warning$ -- 2
while$ -- 12
width$ -- 7
write$ -- 57
(There were 6 warnings)
